(kicad_sch (version 20211123) (generator eeschema)

  (uuid b98376ef-b71a-43db-ad05-4273c2487a0c)

  (paper "A4")

  (lib_symbols
  )


  (hierarchical_label "Temp_3_in_A" (shape input) (at 202.565 57.785 0)
    (effects (font (size 1.27 1.27)) (justify left))
    (uuid 01d73923-f90b-40b2-ab92-e5b9b4fb4280)
  )
  (hierarchical_label "GSHP_N" (shape input) (at 109.22 90.805 0)
    (effects (font (size 1.27 1.27)) (justify left))
    (uuid 021acbed-9bde-4204-b290-254f134a3f2d)
  )
  (hierarchical_label "CDU_Composter_N" (shape input) (at 109.22 56.515 0)
    (effects (font (size 1.27 1.27)) (justify left))
    (uuid 0879ad2e-25d2-4c43-aa1c-fcd99b099d4e)
  )
  (hierarchical_label "CDU_Com_GSHP_L" (shape output) (at 109.22 100.965 0)
    (effects (font (size 1.27 1.27)) (justify left))
    (uuid 091a167d-2a37-4bc1-956b-94923123fe38)
  )
  (hierarchical_label "Temp_1_out_a" (shape input) (at 202.565 29.21 0)
    (effects (font (size 1.27 1.27)) (justify left))
    (uuid 0acaf2b3-8b98-4f96-8176-40df59a04e62)
  )
  (hierarchical_label "Temp_4_out_a" (shape input) (at 202.565 86.995 0)
    (effects (font (size 1.27 1.27)) (justify left))
    (uuid 119da271-4f39-4c68-b79c-1ca51789653c)
  )
  (hierarchical_label "Temp_com_in_B" (shape input) (at 202.565 101.6 0)
    (effects (font (size 1.27 1.27)) (justify left))
    (uuid 14faf971-f514-4bbf-85e6-3975f58ab4f1)
  )
  (hierarchical_label "CDU_Com_Ref_L" (shape output) (at 109.22 71.755 0)
    (effects (font (size 1.27 1.27)) (justify left))
    (uuid 25179b25-de2a-4ebb-8c57-b200fbf310e7)
  )
  (hierarchical_label "CDU_Ref_L" (shape input) (at 109.22 69.215 0)
    (effects (font (size 1.27 1.27)) (justify left))
    (uuid 26f7d14f-a5a9-410e-9b39-b012e79e92cd)
  )
  (hierarchical_label "Temp_4_in_a" (shape input) (at 202.565 77.47 0)
    (effects (font (size 1.27 1.27)) (justify left))
    (uuid 27bc3ae7-c912-45be-b9ee-75881981d500)
  )
  (hierarchical_label "FCU_Ref_L" (shape output) (at 109.22 62.865 0)
    (effects (font (size 1.27 1.27)) (justify left))
    (uuid 2ec39400-76d1-493f-96f3-7449082c2f7a)
  )
  (hierarchical_label "Water_Pump_N" (shape input) (at 109.22 113.665 0)
    (effects (font (size 1.27 1.27)) (justify left))
    (uuid 2f29ac0a-00bf-4261-bb20-40ce1ffa9760)
  )
  (hierarchical_label "Temp_4_in_B" (shape input) (at 202.4158 79.6049 0)
    (effects (font (size 1.27 1.27)) (justify left))
    (uuid 32b0700e-9102-46d2-8338-d66ccc59e4df)
  )
  (hierarchical_label "CDU_Composter_L" (shape output) (at 109.22 52.705 0)
    (effects (font (size 1.27 1.27)) (justify left))
    (uuid 36150c79-592b-4836-af56-b5e64318f6b3)
  )
  (hierarchical_label "GND" (shape output) (at 202.565 116.84 0)
    (effects (font (size 1.27 1.27)) (justify left))
    (uuid 364e245c-c593-48c4-a660-b43c4473f40b)
  )
  (hierarchical_label "+24V" (shape output) (at 202.565 111.125 0)
    (effects (font (size 1.27 1.27)) (justify left))
    (uuid 3950196e-a647-4884-90e6-238d37041944)
  )
  (hierarchical_label "Temp_1_in_B" (shape input) (at 202.565 22.225 0)
    (effects (font (size 1.27 1.27)) (justify left))
    (uuid 3c43bc76-6157-4411-9937-9f742c4fb85e)
  )
  (hierarchical_label "FCU_GSHP_L" (shape output) (at 109.22 88.265 0)
    (effects (font (size 1.27 1.27)) (justify left))
    (uuid 3f864685-03c5-49a2-97a1-d839890f9d2e)
  )
  (hierarchical_label "Temp_1_out_A" (shape input) (at 202.565 27.305 0)
    (effects (font (size 1.27 1.27)) (justify left))
    (uuid 445ac14a-6aa0-4ba5-96c7-e4061f94b475)
  )
  (hierarchical_label "Temp_4_in_A" (shape input) (at 202.565 75.565 0)
    (effects (font (size 1.27 1.27)) (justify left))
    (uuid 4c9abea7-2476-4820-8c3c-2e7ec1fcbcce)
  )
  (hierarchical_label "CDU_GSHP_N" (shape output) (at 109.22 97.155 0)
    (effects (font (size 1.27 1.27)) (justify left))
    (uuid 5490cc93-8009-4fc8-a5cc-46fda5bc8652)
  )
  (hierarchical_label "Temp_3_out_A" (shape input) (at 202.565 66.675 0)
    (effects (font (size 1.27 1.27)) (justify left))
    (uuid 5dd4e0ba-0ebb-4a2e-bfeb-091944e211b2)
  )
  (hierarchical_label "Temp_com_in_b" (shape input) (at 202.7142 103.9101 0)
    (effects (font (size 1.27 1.27)) (justify left))
    (uuid 606d4eee-6a72-4a47-908b-5786b77db01d)
  )
  (hierarchical_label "Temp_1_out_B" (shape input) (at 202.565 31.115 0)
    (effects (font (size 1.27 1.27)) (justify left))
    (uuid 662f37a1-9f1c-4f8d-83a9-d23247b9cf98)
  )
  (hierarchical_label "Temp_2_in_b" (shape input) (at 202.565 41.91 0)
    (effects (font (size 1.27 1.27)) (justify left))
    (uuid 6f46bc3d-36b7-4b68-a3da-f8f8d0687b68)
  )
  (hierarchical_label "Temp_1_in_A" (shape input) (at 202.565 18.415 0)
    (effects (font (size 1.27 1.27)) (justify left))
    (uuid 76e3093f-c9e8-4359-a943-1bf5cce57bc1)
  )
  (hierarchical_label "Temp_4_out_A" (shape input) (at 202.4158 85.3199 0)
    (effects (font (size 1.27 1.27)) (justify left))
    (uuid 7d54574e-5fdf-4290-8d95-16471f5963b8)
  )
  (hierarchical_label "Temp_1_in_a" (shape input) (at 202.565 20.32 0)
    (effects (font (size 1.27 1.27)) (justify left))
    (uuid 7f4bff37-2c67-44ab-ad2b-4f1a420db19b)
  )
  (hierarchical_label "Temp_3_in_B" (shape input) (at 202.565 61.595 0)
    (effects (font (size 1.27 1.27)) (justify left))
    (uuid 80c3710e-9acc-41a5-8d8d-e6a93f45e2cb)
  )
  (hierarchical_label "CDU_GSHP_L" (shape input) (at 109.22 94.615 0)
    (effects (font (size 1.27 1.27)) (justify left))
    (uuid 81afa910-55d4-4566-8c1c-8d5c80531073)
  )
  (hierarchical_label "Temp_com_in_A" (shape input) (at 202.7142 97.5601 0)
    (effects (font (size 1.27 1.27)) (justify left))
    (uuid 826dc967-f90e-403f-a398-772194689a58)
  )
  (hierarchical_label "Temp_3_in_b" (shape input) (at 202.565 63.5 0)
    (effects (font (size 1.27 1.27)) (justify left))
    (uuid 846142e6-9e09-46e2-a939-a02af63e1ba1)
  )
  (hierarchical_label "Temp_2_in_A" (shape input) (at 202.565 36.195 0)
    (effects (font (size 1.27 1.27)) (justify left))
    (uuid 84ad2b26-e06c-420e-98b1-28b218ef89af)
  )
  (hierarchical_label "CDU_Fan_GSHP_N" (shape input) (at 109.22 106.045 0)
    (effects (font (size 1.27 1.27)) (justify left))
    (uuid 8799cd40-096d-4b5a-9818-8e3c6a3a568d)
  )
  (hierarchical_label "Main_L" (shape input) (at 109.22 43.815 0)
    (effects (font (size 1.27 1.27)) (justify left))
    (uuid 881d4701-23e3-46fc-aa27-226e119f3bf1)
  )
  (hierarchical_label "Temp_4_out_B" (shape input) (at 202.565 88.9 0)
    (effects (font (size 1.27 1.27)) (justify left))
    (uuid 881dcde9-31cb-49c4-ade1-904e5547083d)
  )
  (hierarchical_label "Temp_4_in_b" (shape input) (at 202.565 81.915 0)
    (effects (font (size 1.27 1.27)) (justify left))
    (uuid 8d355bb0-1b41-46f5-90d1-cb7b48e68c7d)
  )
  (hierarchical_label "Temp_3_out_b" (shape input) (at 202.565 72.39 0)
    (effects (font (size 1.27 1.27)) (justify left))
    (uuid 917a1261-6529-43e2-91cb-33e5679c317b)
  )
  (hierarchical_label "Temp_2_in_B" (shape input) (at 202.565 40.005 0)
    (effects (font (size 1.27 1.27)) (justify left))
    (uuid 94196377-1f35-4b67-8dad-808335ad8d6f)
  )
  (hierarchical_label "Temp_2_out_B" (shape input) (at 202.565 48.895 0)
    (effects (font (size 1.27 1.27)) (justify left))
    (uuid 99a9feaf-06d3-415b-9179-a8cea9be3342)
  )
  (hierarchical_label "Ethernet" (shape bidirectional) (at 109.22 36.195 0)
    (effects (font (size 1.27 1.27)) (justify left))
    (uuid 9df1c594-fb91-4adb-9b8f-118ae49c2c90)
  )
  (hierarchical_label "Flow_Sensor_2_cable" (shape bidirectional) (at 202.565 120.015 0)
    (effects (font (size 1.27 1.27)) (justify left))
    (uuid a0485353-bff8-45f5-9a16-b4a342c5ea1c)
  )
  (hierarchical_label "Temp_1_out_b" (shape input) (at 202.565 33.02 0)
    (effects (font (size 1.27 1.27)) (justify left))
    (uuid afa765ba-aeb1-435d-9b99-b9d315ef0a1a)
  )
  (hierarchical_label "Main_N" (shape output) (at 109.22 47.625 0)
    (effects (font (size 1.27 1.27)) (justify left))
    (uuid b1901854-e60a-43f6-b370-9be5bd952ff0)
  )
  (hierarchical_label "Temp_3_in_a" (shape input) (at 202.565 59.69 0)
    (effects (font (size 1.27 1.27)) (justify left))
    (uuid bbd611ad-e6a3-4baf-8c6e-e6b6c7836379)
  )
  (hierarchical_label "Water_Pump_GND" (shape passive) (at 109.22 116.205 0)
    (effects (font (size 1.27 1.27)) (justify left))
    (uuid c1ee8d47-6ae9-4c4d-bc87-007c3d934584)
  )
  (hierarchical_label "CDU_Fan_GSHP_L" (shape output) (at 109.22 103.505 0)
    (effects (font (size 1.27 1.27)) (justify left))
    (uuid c3a933d1-1a9c-4bd9-b65d-7cae58f2bdcd)
  )
  (hierarchical_label "Temp_3_out_a" (shape input) (at 202.565 68.58 0)
    (effects (font (size 1.27 1.27)) (justify left))
    (uuid c718abd6-be32-412d-8be6-efa4d432254c)
  )
  (hierarchical_label "Temp_2_out_b" (shape input) (at 202.565 50.8 0)
    (effects (font (size 1.27 1.27)) (justify left))
    (uuid c9f8d346-6cfd-4bfe-bc8f-df36f4871e74)
  )
  (hierarchical_label "Flow_Sensor_1_Out_2" (shape output) (at 202.565 114.935 0)
    (effects (font (size 1.27 1.27)) (justify left))
    (uuid cb6e19ce-c95d-4285-858a-bf4f50a207f8)
  )
  (hierarchical_label "Water_Pump_L" (shape output) (at 109.22 111.125 0)
    (effects (font (size 1.27 1.27)) (justify left))
    (uuid cb7a0362-26d1-4b24-ab18-e1558a57c2fc)
  )
  (hierarchical_label "Temp_2_in_a" (shape input) (at 202.565 38.1 0)
    (effects (font (size 1.27 1.27)) (justify left))
    (uuid cf12733c-d26a-4cc7-af32-2b5d6d9f6f99)
  )
  (hierarchical_label "Temp_3_out_B" (shape input) (at 202.565 70.485 0)
    (effects (font (size 1.27 1.27)) (justify left))
    (uuid d7946adb-4fca-4bf9-b698-84cde2101060)
  )
  (hierarchical_label "CDU_Fan_Ref_L" (shape output) (at 109.22 74.295 0)
    (effects (font (size 1.27 1.27)) (justify left))
    (uuid dcc235d4-5cf0-42e1-ab07-88dcab9e5884)
  )
  (hierarchical_label "Temp_com_in_a" (shape input) (at 202.7142 99.4651 0)
    (effects (font (size 1.27 1.27)) (justify left))
    (uuid e002947f-6349-4e0c-a70a-4e91473dc65e)
  )
  (hierarchical_label "Temp_2_out_a" (shape input) (at 202.565 46.99 0)
    (effects (font (size 1.27 1.27)) (justify left))
    (uuid e7a3fabb-30d1-4794-aaf1-8c67ada8747d)
  )
  (hierarchical_label "Ref_N" (shape input) (at 109.22 65.405 0)
    (effects (font (size 1.27 1.27)) (justify left))
    (uuid f42563d0-5eab-47ed-9579-c2bec7394018)
  )
  (hierarchical_label "Temp_4_out_b" (shape input) (at 202.565 90.805 0)
    (effects (font (size 1.27 1.27)) (justify left))
    (uuid f7d0efd0-7bb5-4bed-b2df-2d148e684074)
  )
  (hierarchical_label "Flow_Sensor_1_Out_1" (shape output) (at 202.565 113.03 0)
    (effects (font (size 1.27 1.27)) (justify left))
    (uuid f8cee62d-c06c-4b4c-afa7-53acf27061b8)
  )
  (hierarchical_label "Temp_1_in_b" (shape input) (at 202.565 24.13 0)
    (effects (font (size 1.27 1.27)) (justify left))
    (uuid fb56ac9d-ecbd-46ea-a98a-2a29e470dd9f)
  )
  (hierarchical_label "Temp_2_out_A" (shape input) (at 202.565 45.085 0)
    (effects (font (size 1.27 1.27)) (justify left))
    (uuid fec9fa53-3517-4bc7-9e4d-2a44f2d84ca3)
  )
)
