(kicad_sch (version 20211123) (generator eeschema)

  (uuid 7d1a253c-d95c-4d84-a6ab-a239b89a6603)

  (paper "A4")

  (lib_symbols
    (symbol "gshp_power_controller_schematic-rescue:24V_Regulator-gshp_lib" (pin_names (offset 1.016)) (in_bom yes) (on_board yes)
      (property "Reference" "U" (id 0) (at 0 0 0)
        (effects (font (size 1.27 1.27)))
      )
      (property "Value" "24V_Regulator-gshp_lib" (id 1) (at 0 0 0)
        (effects (font (size 1.27 1.27)))
      )
      (property "Footprint" "" (id 2) (at 0 0 0)
        (effects (font (size 1.27 1.27)) hide)
      )
      (property "Datasheet" "" (id 3) (at 0 0 0)
        (effects (font (size 1.27 1.27)) hide)
      )
      (symbol "24V_Regulator-gshp_lib_0_1"
        (rectangle (start -5.08 -1.27) (end 7.62 -11.43)
          (stroke (width 0) (type default) (color 0 0 0 0))
          (fill (type none))
        )
      )
      (symbol "24V_Regulator-gshp_lib_1_1"
        (pin power_in line (at -7.62 -3.81 0) (length 2.54)
          (name "L" (effects (font (size 1.27 1.27))))
          (number "1" (effects (font (size 1.27 1.27))))
        )
        (pin power_in line (at -7.62 -8.89 0) (length 2.54)
          (name "N" (effects (font (size 1.27 1.27))))
          (number "2" (effects (font (size 1.27 1.27))))
        )
        (pin power_out line (at 10.16 -3.81 180) (length 2.54)
          (name "+24V" (effects (font (size 1.27 1.27))))
          (number "3" (effects (font (size 1.27 1.27))))
        )
        (pin power_out line (at 10.16 -8.89 180) (length 2.54)
          (name "GND" (effects (font (size 1.27 1.27))))
          (number "4" (effects (font (size 1.27 1.27))))
        )
      )
    )
    (symbol "gshp_power_controller_schematic-rescue:5V_Regulator-gshp_lib" (pin_names (offset 1.016)) (in_bom yes) (on_board yes)
      (property "Reference" "U" (id 0) (at 0 0 0)
        (effects (font (size 1.27 1.27)))
      )
      (property "Value" "5V_Regulator-gshp_lib" (id 1) (at 0 0 0)
        (effects (font (size 1.27 1.27)))
      )
      (property "Footprint" "" (id 2) (at 0 0 0)
        (effects (font (size 1.27 1.27)) hide)
      )
      (property "Datasheet" "" (id 3) (at 0 0 0)
        (effects (font (size 1.27 1.27)) hide)
      )
      (symbol "5V_Regulator-gshp_lib_0_1"
        (rectangle (start -5.08 -1.27) (end 7.62 -11.43)
          (stroke (width 0) (type default) (color 0 0 0 0))
          (fill (type none))
        )
      )
      (symbol "5V_Regulator-gshp_lib_1_1"
        (pin power_in line (at -7.62 -3.81 0) (length 2.54)
          (name "L" (effects (font (size 1.27 1.27))))
          (number "1" (effects (font (size 1.27 1.27))))
        )
        (pin power_in line (at -7.62 -8.89 0) (length 2.54)
          (name "N" (effects (font (size 1.27 1.27))))
          (number "2" (effects (font (size 1.27 1.27))))
        )
        (pin power_out line (at 10.16 -3.81 180) (length 2.54)
          (name "+5V" (effects (font (size 1.27 1.27))))
          (number "3" (effects (font (size 1.27 1.27))))
        )
        (pin power_out line (at 10.16 -8.89 180) (length 2.54)
          (name "GND" (effects (font (size 1.27 1.27))))
          (number "4" (effects (font (size 1.27 1.27))))
        )
      )
    )
    (symbol "gshp_power_controller_schematic-rescue:KVH_JK23663-gshp_lib" (pin_names (offset 1.016)) (in_bom yes) (on_board yes)
      (property "Reference" "U" (id 0) (at 10.16 -38.1 0)
        (effects (font (size 1.27 1.27)))
      )
      (property "Value" "KVH_JK23663-gshp_lib" (id 1) (at 0 -38.1 0)
        (effects (font (size 1.27 1.27)))
      )
      (property "Footprint" "" (id 2) (at 2.54 -12.7 0)
        (effects (font (size 1.27 1.27)) hide)
      )
      (property "Datasheet" "" (id 3) (at 2.54 -12.7 0)
        (effects (font (size 1.27 1.27)) hide)
      )
      (symbol "KVH_JK23663-gshp_lib_0_1"
        (rectangle (start -10.16 11.43) (end 10.16 -36.83)
          (stroke (width 0) (type default) (color 0 0 0 0))
          (fill (type none))
        )
      )
      (symbol "KVH_JK23663-gshp_lib_1_1"
        (pin power_in line (at -12.7 5.08 0) (length 2.54)
          (name "L" (effects (font (size 1.27 1.27))))
          (number "1" (effects (font (size 1.27 1.27))))
        )
        (pin input line (at 12.7 3.81 180) (length 2.54)
          (name "CT_1_L" (effects (font (size 1.27 1.27))))
          (number "10" (effects (font (size 1.27 1.27))))
        )
        (pin input line (at 12.7 0 180) (length 2.54)
          (name "CT_2_K" (effects (font (size 1.27 1.27))))
          (number "11" (effects (font (size 1.27 1.27))))
        )
        (pin input line (at 12.7 -2.54 180) (length 2.54)
          (name "CT_2_L" (effects (font (size 1.27 1.27))))
          (number "12" (effects (font (size 1.27 1.27))))
        )
        (pin input line (at 12.7 -6.35 180) (length 2.54)
          (name "CT_3_K" (effects (font (size 1.27 1.27))))
          (number "13" (effects (font (size 1.27 1.27))))
        )
        (pin input line (at 12.7 -8.89 180) (length 2.54)
          (name "CT_3_L" (effects (font (size 1.27 1.27))))
          (number "14" (effects (font (size 1.27 1.27))))
        )
        (pin input line (at 12.7 -12.7 180) (length 2.54)
          (name "CT_4_K" (effects (font (size 1.27 1.27))))
          (number "15" (effects (font (size 1.27 1.27))))
        )
        (pin input line (at 12.7 -15.24 180) (length 2.54)
          (name "CT_4_L" (effects (font (size 1.27 1.27))))
          (number "16" (effects (font (size 1.27 1.27))))
        )
        (pin input line (at 12.7 -19.05 180) (length 2.54)
          (name "CT_5_K" (effects (font (size 1.27 1.27))))
          (number "17" (effects (font (size 1.27 1.27))))
        )
        (pin input line (at 12.7 -21.59 180) (length 2.54)
          (name "CT_5_L" (effects (font (size 1.27 1.27))))
          (number "18" (effects (font (size 1.27 1.27))))
        )
        (pin input line (at 12.7 -25.4 180) (length 2.54)
          (name "CT_6_K" (effects (font (size 1.27 1.27))))
          (number "19" (effects (font (size 1.27 1.27))))
        )
        (pin power_in line (at -12.7 0 0) (length 2.54)
          (name "N" (effects (font (size 1.27 1.27))))
          (number "2" (effects (font (size 1.27 1.27))))
        )
        (pin input line (at 12.7 -27.94 180) (length 2.54)
          (name "CT_6_L" (effects (font (size 1.27 1.27))))
          (number "20" (effects (font (size 1.27 1.27))))
        )
        (pin input line (at 12.7 -31.75 180) (length 2.54)
          (name "CT_7_K" (effects (font (size 1.27 1.27))))
          (number "21" (effects (font (size 1.27 1.27))))
        )
        (pin input line (at 12.7 -34.29 180) (length 2.54)
          (name "CT_7_L" (effects (font (size 1.27 1.27))))
          (number "22" (effects (font (size 1.27 1.27))))
        )
        (pin input line (at -5.08 13.97 270) (length 2.54)
          (name "Ua" (effects (font (size 1.27 1.27))))
          (number "3" (effects (font (size 1.27 1.27))))
        )
        (pin input line (at -2.54 13.97 270) (length 2.54)
          (name "Ub" (effects (font (size 1.27 1.27))))
          (number "4" (effects (font (size 1.27 1.27))))
        )
        (pin input line (at 0 13.97 270) (length 2.54)
          (name "Uc" (effects (font (size 1.27 1.27))))
          (number "5" (effects (font (size 1.27 1.27))))
        )
        (pin input line (at 2.54 13.97 270) (length 2.54)
          (name "N" (effects (font (size 1.27 1.27))))
          (number "6" (effects (font (size 1.27 1.27))))
        )
        (pin bidirectional line (at -12.7 -26.67 0) (length 2.54)
          (name "+RS485" (effects (font (size 1.27 1.27))))
          (number "7" (effects (font (size 1.27 1.27))))
        )
        (pin power_in line (at -12.7 -29.21 0) (length 2.54)
          (name "-RS485" (effects (font (size 1.27 1.27))))
          (number "8" (effects (font (size 1.27 1.27))))
        )
        (pin input line (at 12.7 6.35 180) (length 2.54)
          (name "CT_1_K" (effects (font (size 1.27 1.27))))
          (number "9" (effects (font (size 1.27 1.27))))
        )
      )
    )
    (symbol "gshp_power_controller_schematic-rescue:TIM-94N-4CH-gshp_lib" (pin_names (offset 1.016)) (in_bom yes) (on_board yes)
      (property "Reference" "U" (id 0) (at 15.24 15.24 0)
        (effects (font (size 1.27 1.27)))
      )
      (property "Value" "TIM-94N-4CH-gshp_lib" (id 1) (at 15.24 20.32 0)
        (effects (font (size 1.27 1.27)))
      )
      (property "Footprint" "" (id 2) (at 0 0 0)
        (effects (font (size 1.27 1.27)) hide)
      )
      (property "Datasheet" "" (id 3) (at 0 0 0)
        (effects (font (size 1.27 1.27)) hide)
      )
      (symbol "TIM-94N-4CH-gshp_lib_0_1"
        (rectangle (start -3.81 7.62) (end 16.51 -33.02)
          (stroke (width 0) (type default) (color 0 0 0 0))
          (fill (type none))
        )
      )
      (symbol "TIM-94N-4CH-gshp_lib_1_1"
        (pin power_in line (at -6.35 3.81 0) (length 2.54)
          (name "L" (effects (font (size 1.27 1.27))))
          (number "1" (effects (font (size 1.27 1.27))))
        )
        (pin bidirectional line (at -6.35 -24.13 0) (length 2.54)
          (name "-RS485" (effects (font (size 1.27 1.27))))
          (number "11" (effects (font (size 1.27 1.27))))
        )
        (pin bidirectional line (at -6.35 -21.59 0) (length 2.54)
          (name "+RS485" (effects (font (size 1.27 1.27))))
          (number "12" (effects (font (size 1.27 1.27))))
        )
        (pin input line (at 19.05 -30.48 180) (length 2.54)
          (name "b_4" (effects (font (size 1.27 1.27))))
          (number "13" (effects (font (size 1.27 1.27))))
        )
        (pin input line (at 19.05 -27.94 180) (length 2.54)
          (name "B_4" (effects (font (size 1.27 1.27))))
          (number "14" (effects (font (size 1.27 1.27))))
        )
        (pin input line (at 19.05 -25.4 180) (length 2.54)
          (name "A_4" (effects (font (size 1.27 1.27))))
          (number "15" (effects (font (size 1.27 1.27))))
        )
        (pin input line (at 19.05 -20.32 180) (length 2.54)
          (name "b_3" (effects (font (size 1.27 1.27))))
          (number "16" (effects (font (size 1.27 1.27))))
        )
        (pin input line (at 19.05 -17.78 180) (length 2.54)
          (name "B_3" (effects (font (size 1.27 1.27))))
          (number "17" (effects (font (size 1.27 1.27))))
        )
        (pin input line (at 19.05 -15.24 180) (length 2.54)
          (name "A_3" (effects (font (size 1.27 1.27))))
          (number "18" (effects (font (size 1.27 1.27))))
        )
        (pin input line (at 19.05 -10.16 180) (length 2.54)
          (name "b_2" (effects (font (size 1.27 1.27))))
          (number "19" (effects (font (size 1.27 1.27))))
        )
        (pin power_in line (at -6.35 -1.27 0) (length 2.54)
          (name "N" (effects (font (size 1.27 1.27))))
          (number "2" (effects (font (size 1.27 1.27))))
        )
        (pin input line (at 19.05 -7.62 180) (length 2.54)
          (name "B_2" (effects (font (size 1.27 1.27))))
          (number "20" (effects (font (size 1.27 1.27))))
        )
        (pin input line (at 19.05 -5.08 180) (length 2.54)
          (name "A_2" (effects (font (size 1.27 1.27))))
          (number "21" (effects (font (size 1.27 1.27))))
        )
        (pin input line (at 19.05 0 180) (length 2.54)
          (name "b_1" (effects (font (size 1.27 1.27))))
          (number "22" (effects (font (size 1.27 1.27))))
        )
        (pin input line (at 19.05 2.54 180) (length 2.54)
          (name "B_1" (effects (font (size 1.27 1.27))))
          (number "23" (effects (font (size 1.27 1.27))))
        )
        (pin input line (at 19.05 5.08 180) (length 2.54)
          (name "A_1" (effects (font (size 1.27 1.27))))
          (number "24" (effects (font (size 1.27 1.27))))
        )
      )
    )
    (symbol "power:+24V" (power) (pin_names (offset 0)) (in_bom yes) (on_board yes)
      (property "Reference" "#PWR" (id 0) (at 0 -3.81 0)
        (effects (font (size 1.27 1.27)) hide)
      )
      (property "Value" "+24V" (id 1) (at 0 3.556 0)
        (effects (font (size 1.27 1.27)))
      )
      (property "Footprint" "" (id 2) (at 0 0 0)
        (effects (font (size 1.27 1.27)) hide)
      )
      (property "Datasheet" "" (id 3) (at 0 0 0)
        (effects (font (size 1.27 1.27)) hide)
      )
      (property "ki_keywords" "power-flag" (id 4) (at 0 0 0)
        (effects (font (size 1.27 1.27)) hide)
      )
      (property "ki_description" "Power symbol creates a global label with name \"+24V\"" (id 5) (at 0 0 0)
        (effects (font (size 1.27 1.27)) hide)
      )
      (symbol "+24V_0_1"
        (polyline
          (pts
            (xy -0.762 1.27)
            (xy 0 2.54)
          )
          (stroke (width 0) (type default) (color 0 0 0 0))
          (fill (type none))
        )
        (polyline
          (pts
            (xy 0 0)
            (xy 0 2.54)
          )
          (stroke (width 0) (type default) (color 0 0 0 0))
          (fill (type none))
        )
        (polyline
          (pts
            (xy 0 2.54)
            (xy 0.762 1.27)
          )
          (stroke (width 0) (type default) (color 0 0 0 0))
          (fill (type none))
        )
      )
      (symbol "+24V_1_1"
        (pin power_in line (at 0 0 90) (length 0) hide
          (name "+24V" (effects (font (size 1.27 1.27))))
          (number "1" (effects (font (size 1.27 1.27))))
        )
      )
    )
    (symbol "power:+5V" (power) (pin_names (offset 0)) (in_bom yes) (on_board yes)
      (property "Reference" "#PWR" (id 0) (at 0 -3.81 0)
        (effects (font (size 1.27 1.27)) hide)
      )
      (property "Value" "+5V" (id 1) (at 0 3.556 0)
        (effects (font (size 1.27 1.27)))
      )
      (property "Footprint" "" (id 2) (at 0 0 0)
        (effects (font (size 1.27 1.27)) hide)
      )
      (property "Datasheet" "" (id 3) (at 0 0 0)
        (effects (font (size 1.27 1.27)) hide)
      )
      (property "ki_keywords" "power-flag" (id 4) (at 0 0 0)
        (effects (font (size 1.27 1.27)) hide)
      )
      (property "ki_description" "Power symbol creates a global label with name \"+5V\"" (id 5) (at 0 0 0)
        (effects (font (size 1.27 1.27)) hide)
      )
      (symbol "+5V_0_1"
        (polyline
          (pts
            (xy -0.762 1.27)
            (xy 0 2.54)
          )
          (stroke (width 0) (type default) (color 0 0 0 0))
          (fill (type none))
        )
        (polyline
          (pts
            (xy 0 0)
            (xy 0 2.54)
          )
          (stroke (width 0) (type default) (color 0 0 0 0))
          (fill (type none))
        )
        (polyline
          (pts
            (xy 0 2.54)
            (xy 0.762 1.27)
          )
          (stroke (width 0) (type default) (color 0 0 0 0))
          (fill (type none))
        )
      )
      (symbol "+5V_1_1"
        (pin power_in line (at 0 0 90) (length 0) hide
          (name "+5V" (effects (font (size 1.27 1.27))))
          (number "1" (effects (font (size 1.27 1.27))))
        )
      )
    )
    (symbol "power:GNDA" (power) (pin_names (offset 0)) (in_bom yes) (on_board yes)
      (property "Reference" "#PWR" (id 0) (at 0 -6.35 0)
        (effects (font (size 1.27 1.27)) hide)
      )
      (property "Value" "GNDA" (id 1) (at 0 -3.81 0)
        (effects (font (size 1.27 1.27)))
      )
      (property "Footprint" "" (id 2) (at 0 0 0)
        (effects (font (size 1.27 1.27)) hide)
      )
      (property "Datasheet" "" (id 3) (at 0 0 0)
        (effects (font (size 1.27 1.27)) hide)
      )
      (property "ki_keywords" "power-flag" (id 4) (at 0 0 0)
        (effects (font (size 1.27 1.27)) hide)
      )
      (property "ki_description" "Power symbol creates a global label with name \"GNDA\" , analog ground" (id 5) (at 0 0 0)
        (effects (font (size 1.27 1.27)) hide)
      )
      (symbol "GNDA_0_1"
        (polyline
          (pts
            (xy 0 0)
            (xy 0 -1.27)
            (xy 1.27 -1.27)
            (xy 0 -2.54)
            (xy -1.27 -1.27)
            (xy 0 -1.27)
          )
          (stroke (width 0) (type default) (color 0 0 0 0))
          (fill (type none))
        )
      )
      (symbol "GNDA_1_1"
        (pin power_in line (at 0 0 270) (length 0) hide
          (name "GNDA" (effects (font (size 1.27 1.27))))
          (number "1" (effects (font (size 1.27 1.27))))
        )
      )
    )
    (symbol "power:GNDD" (power) (pin_names (offset 0)) (in_bom yes) (on_board yes)
      (property "Reference" "#PWR" (id 0) (at 0 -6.35 0)
        (effects (font (size 1.27 1.27)) hide)
      )
      (property "Value" "GNDD" (id 1) (at 0 -3.175 0)
        (effects (font (size 1.27 1.27)))
      )
      (property "Footprint" "" (id 2) (at 0 0 0)
        (effects (font (size 1.27 1.27)) hide)
      )
      (property "Datasheet" "" (id 3) (at 0 0 0)
        (effects (font (size 1.27 1.27)) hide)
      )
      (property "ki_keywords" "power-flag" (id 4) (at 0 0 0)
        (effects (font (size 1.27 1.27)) hide)
      )
      (property "ki_description" "Power symbol creates a global label with name \"GNDD\" , digital ground" (id 5) (at 0 0 0)
        (effects (font (size 1.27 1.27)) hide)
      )
      (symbol "GNDD_0_1"
        (rectangle (start -1.27 -1.524) (end 1.27 -2.032)
          (stroke (width 0.254) (type default) (color 0 0 0 0))
          (fill (type outline))
        )
        (polyline
          (pts
            (xy 0 0)
            (xy 0 -1.524)
          )
          (stroke (width 0) (type default) (color 0 0 0 0))
          (fill (type none))
        )
      )
      (symbol "GNDD_1_1"
        (pin power_in line (at 0 0 270) (length 0) hide
          (name "GNDD" (effects (font (size 1.27 1.27))))
          (number "1" (effects (font (size 1.27 1.27))))
        )
      )
    )
  )

  (junction (at 88.9 86.36) (diameter 0) (color 0 0 0 0)
    (uuid 836d3b11-6a40-4e40-82eb-205911e626a7)
  )
  (junction (at 201.93 102.87) (diameter 0) (color 0 0 0 0)
    (uuid c95a3dc9-a824-4765-9472-9d79b5702dda)
  )
  (junction (at 204.47 113.03) (diameter 0) (color 0 0 0 0)
    (uuid de996e8d-01bd-47f4-916b-13c8e7dd8f55)
  )
  (junction (at 55.88 69.85) (diameter 0) (color 0 0 0 0)
    (uuid e15a35cb-851b-4966-ada9-a38af7aafa6a)
  )
  (junction (at 50.8 64.77) (diameter 0) (color 0 0 0 0)
    (uuid e3ccd7d4-0388-41f4-92f6-95dd3ebfd319)
  )
  (junction (at 88.9 91.44) (diameter 0) (color 0 0 0 0)
    (uuid efb26e5d-87c0-4dcb-8061-2495bce5d7c2)
  )

  (wire (pts (xy 223.52 97.79) (xy 223.52 109.22))
    (stroke (width 0) (type default) (color 0 0 0 0))
    (uuid 07897911-382d-4f57-a5d2-75baa55153ed)
  )
  (wire (pts (xy 44.45 24.13) (xy 179.07 24.13))
    (stroke (width 0) (type default) (color 0 0 0 0))
    (uuid 0904b74d-d671-4a26-9434-7bb97f4b4dae)
  )
  (wire (pts (xy 158.75 92.71) (xy 228.6 92.71))
    (stroke (width 0) (type default) (color 0 0 0 0))
    (uuid 0b13ef65-6db8-447e-bf39-a4c3663dbc90)
  )
  (wire (pts (xy 201.93 102.87) (xy 194.31 102.87))
    (stroke (width 0) (type default) (color 0 0 0 0))
    (uuid 0b39cb60-cccf-49e6-bda9-04cb3baa2a79)
  )
  (wire (pts (xy 184.15 31.75) (xy 163.83 31.75))
    (stroke (width 0) (type default) (color 0 0 0 0))
    (uuid 0b3bd7cb-cb65-414d-81ab-918478794745)
  )
  (wire (pts (xy 205.74 100.33) (xy 201.93 100.33))
    (stroke (width 0) (type default) (color 0 0 0 0))
    (uuid 0bde6ef1-0230-47e1-b5d8-2bedcb96d220)
  )
  (wire (pts (xy 44.45 48.26) (xy 55.88 48.26))
    (stroke (width 0) (type default) (color 0 0 0 0))
    (uuid 0fe84e02-a7dd-4a8b-8a0a-d354e3a7f7ee)
  )
  (wire (pts (xy 213.36 44.45) (xy 194.31 44.45))
    (stroke (width 0) (type default) (color 0 0 0 0))
    (uuid 12e94636-5d2b-4385-a6fe-067d754dcd4f)
  )
  (wire (pts (xy 228.6 104.14) (xy 232.41 104.14))
    (stroke (width 0) (type default) (color 0 0 0 0))
    (uuid 1593c530-55fc-4205-b33e-21f8e713d7eb)
  )
  (wire (pts (xy 184.15 34.29) (xy 184.15 31.75))
    (stroke (width 0) (type default) (color 0 0 0 0))
    (uuid 1b6b5b01-cd99-4ab0-ae2a-e01af22b0e5e)
  )
  (wire (pts (xy 194.31 118.11) (xy 208.28 118.11))
    (stroke (width 0) (type default) (color 0 0 0 0))
    (uuid 1d0b52c4-d850-4410-a1fc-200bcd5fddd4)
  )
  (wire (pts (xy 194.31 60.96) (xy 213.36 60.96))
    (stroke (width 0) (type default) (color 0 0 0 0))
    (uuid 1f42490b-11e5-4596-9888-9656a0face6d)
  )
  (wire (pts (xy 194.31 76.2) (xy 213.36 76.2))
    (stroke (width 0) (type default) (color 0 0 0 0))
    (uuid 205a66ef-3e5c-432d-b467-ca99e3bc3d37)
  )
  (wire (pts (xy 83.82 69.85) (xy 88.9 69.85))
    (stroke (width 0) (type default) (color 0 0 0 0))
    (uuid 23d3c72e-03f7-4990-87cb-7230b763c2d0)
  )
  (wire (pts (xy 153.67 97.79) (xy 223.52 97.79))
    (stroke (width 0) (type default) (color 0 0 0 0))
    (uuid 2ac0a072-82e1-4c77-aaf4-7aff78c712d2)
  )
  (wire (pts (xy 194.31 67.31) (xy 213.36 67.31))
    (stroke (width 0) (type default) (color 0 0 0 0))
    (uuid 2c53db7a-9fa2-487a-8488-a926db43eb21)
  )
  (wire (pts (xy 205.74 105.41) (xy 194.31 105.41))
    (stroke (width 0) (type default) (color 0 0 0 0))
    (uuid 2db48b1b-6690-4319-98cb-334dcbb8c55a)
  )
  (wire (pts (xy 55.88 48.26) (xy 55.88 69.85))
    (stroke (width 0) (type default) (color 0 0 0 0))
    (uuid 3f21eea3-3ee6-4413-a978-ed4cd231d5ac)
  )
  (wire (pts (xy 44.45 27.94) (xy 181.61 27.94))
    (stroke (width 0) (type default) (color 0 0 0 0))
    (uuid 418fdce5-9718-4aee-8a41-1c3eea3a1416)
  )
  (wire (pts (xy 44.45 43.18) (xy 50.8 43.18))
    (stroke (width 0) (type default) (color 0 0 0 0))
    (uuid 43723618-f707-4a03-b2a4-1c53ef93ae03)
  )
  (wire (pts (xy 194.31 50.8) (xy 213.36 50.8))
    (stroke (width 0) (type default) (color 0 0 0 0))
    (uuid 46fff9f4-9eaa-4d1c-b65f-86d789bd9828)
  )
  (wire (pts (xy 194.31 63.5) (xy 213.36 63.5))
    (stroke (width 0) (type default) (color 0 0 0 0))
    (uuid 486e5e29-cf64-41b6-8055-f914aaff5146)
  )
  (wire (pts (xy 194.31 54.61) (xy 213.36 54.61))
    (stroke (width 0) (type default) (color 0 0 0 0))
    (uuid 4a7756b6-35c5-4094-ad17-35ee3c4549e1)
  )
  (wire (pts (xy 194.31 57.15) (xy 213.36 57.15))
    (stroke (width 0) (type default) (color 0 0 0 0))
    (uuid 4d58fc93-6907-43c9-a36b-b65d3aabca3a)
  )
  (wire (pts (xy 223.52 109.22) (xy 232.41 109.22))
    (stroke (width 0) (type default) (color 0 0 0 0))
    (uuid 510794cb-90ad-4c76-bedb-0827e80f0847)
  )
  (wire (pts (xy 153.67 97.79) (xy 153.67 109.22))
    (stroke (width 0) (type default) (color 0 0 0 0))
    (uuid 54626114-ecca-4d4e-ba9f-87930bf00477)
  )
  (wire (pts (xy 88.9 86.36) (xy 83.82 86.36))
    (stroke (width 0) (type default) (color 0 0 0 0))
    (uuid 56070117-1646-46d1-a43f-a6de9bc5779f)
  )
  (wire (pts (xy 153.67 109.22) (xy 168.91 109.22))
    (stroke (width 0) (type default) (color 0 0 0 0))
    (uuid 566f424b-d6fa-41a4-b7d1-660533d0b13d)
  )
  (wire (pts (xy 158.75 104.14) (xy 168.91 104.14))
    (stroke (width 0) (type default) (color 0 0 0 0))
    (uuid 5adbf082-ea93-4167-8e97-d584074e5ff2)
  )
  (wire (pts (xy 204.47 110.49) (xy 204.47 113.03))
    (stroke (width 0) (type default) (color 0 0 0 0))
    (uuid 6cc18e91-5f42-42b1-900e-fcc73bbdf321)
  )
  (wire (pts (xy 88.9 91.44) (xy 83.82 91.44))
    (stroke (width 0) (type default) (color 0 0 0 0))
    (uuid 6fe2bea1-26e6-46cb-9692-0e7a25bff133)
  )
  (wire (pts (xy 168.91 77.47) (xy 166.37 77.47))
    (stroke (width 0) (type default) (color 0 0 0 0))
    (uuid 702d6104-c39c-4a4b-a892-c414e77edad6)
  )
  (wire (pts (xy 228.6 92.71) (xy 228.6 104.14))
    (stroke (width 0) (type default) (color 0 0 0 0))
    (uuid 702e49a5-b177-4646-8f52-3fd02bee36d9)
  )
  (wire (pts (xy 88.9 64.77) (xy 83.82 64.77))
    (stroke (width 0) (type default) (color 0 0 0 0))
    (uuid 72210b2e-d93c-4bc0-b7eb-9cf48ea8242f)
  )
  (wire (pts (xy 55.88 91.44) (xy 66.04 91.44))
    (stroke (width 0) (type default) (color 0 0 0 0))
    (uuid 777e2635-c055-4b11-87ae-61869be34639)
  )
  (wire (pts (xy 55.88 69.85) (xy 66.04 69.85))
    (stroke (width 0) (type default) (color 0 0 0 0))
    (uuid 814dd520-0ec7-4a2d-b393-b8a4eff9990f)
  )
  (wire (pts (xy 88.9 69.85) (xy 88.9 71.12))
    (stroke (width 0) (type default) (color 0 0 0 0))
    (uuid 82c093b8-26ab-4f6c-bb5f-4e244524aea9)
  )
  (wire (pts (xy 194.31 82.55) (xy 213.36 82.55))
    (stroke (width 0) (type default) (color 0 0 0 0))
    (uuid 832661bc-4fd7-4464-b859-fb05f867aefc)
  )
  (wire (pts (xy 88.9 85.09) (xy 88.9 86.36))
    (stroke (width 0) (type default) (color 0 0 0 0))
    (uuid 86bb7ff9-827b-4eb5-baa7-915090178039)
  )
  (wire (pts (xy 213.36 41.91) (xy 194.31 41.91))
    (stroke (width 0) (type default) (color 0 0 0 0))
    (uuid 87782e85-a3e2-4581-ae89-610950f5fbaf)
  )
  (wire (pts (xy 88.9 63.5) (xy 88.9 64.77))
    (stroke (width 0) (type default) (color 0 0 0 0))
    (uuid 88d6f919-96b2-413b-8037-504e644b209b)
  )
  (wire (pts (xy 205.74 123.19) (xy 194.31 123.19))
    (stroke (width 0) (type default) (color 0 0 0 0))
    (uuid 972536d9-aff9-4445-a381-fcb62eba30d9)
  )
  (wire (pts (xy 88.9 86.36) (xy 92.71 86.36))
    (stroke (width 0) (type default) (color 0 0 0 0))
    (uuid 9a8b6d94-4814-47a3-bdcc-d3f75e4ccddf)
  )
  (wire (pts (xy 222.25 129.54) (xy 232.41 129.54))
    (stroke (width 0) (type default) (color 0 0 0 0))
    (uuid 9bf218ac-8709-422e-a19b-de5553946e3f)
  )
  (wire (pts (xy 163.83 31.75) (xy 163.83 48.26))
    (stroke (width 0) (type default) (color 0 0 0 0))
    (uuid 9c1129ee-404c-4b81-b280-d2427b09f961)
  )
  (wire (pts (xy 224.79 132.08) (xy 224.79 151.13))
    (stroke (width 0) (type default) (color 0 0 0 0))
    (uuid a0de2247-0938-4b53-ac5e-542c299ceede)
  )
  (wire (pts (xy 205.74 102.87) (xy 201.93 102.87))
    (stroke (width 0) (type default) (color 0 0 0 0))
    (uuid a2b27fdb-c2fc-43da-bca3-ce296e01a6d9)
  )
  (wire (pts (xy 50.8 86.36) (xy 66.04 86.36))
    (stroke (width 0) (type default) (color 0 0 0 0))
    (uuid a2f1cd02-8034-48d8-9d9b-ed7064f97837)
  )
  (wire (pts (xy 50.8 64.77) (xy 50.8 86.36))
    (stroke (width 0) (type default) (color 0 0 0 0))
    (uuid a64a9984-c569-41cc-abc0-91521e51ed53)
  )
  (wire (pts (xy 179.07 24.13) (xy 179.07 34.29))
    (stroke (width 0) (type default) (color 0 0 0 0))
    (uuid a8292eec-5bb9-42e6-892c-f37506f9dd9b)
  )
  (wire (pts (xy 50.8 64.77) (xy 50.8 43.18))
    (stroke (width 0) (type default) (color 0 0 0 0))
    (uuid aa144384-0bde-492f-a453-8c9e56994c5f)
  )
  (wire (pts (xy 194.31 115.57) (xy 208.28 115.57))
    (stroke (width 0) (type default) (color 0 0 0 0))
    (uuid abe84c58-7cde-4c9d-b6f3-5bcc77ba1518)
  )
  (wire (pts (xy 92.71 91.44) (xy 88.9 91.44))
    (stroke (width 0) (type default) (color 0 0 0 0))
    (uuid b1c421f2-c9d9-4fff-bf05-3388a240a682)
  )
  (wire (pts (xy 201.93 100.33) (xy 201.93 102.87))
    (stroke (width 0) (type default) (color 0 0 0 0))
    (uuid b28d2774-80a5-4c7f-a9c4-7b5ebdc0c349)
  )
  (wire (pts (xy 194.31 113.03) (xy 204.47 113.03))
    (stroke (width 0) (type default) (color 0 0 0 0))
    (uuid b28e26be-f6cd-4efe-9961-7578e8b002c6)
  )
  (wire (pts (xy 66.04 64.77) (xy 50.8 64.77))
    (stroke (width 0) (type default) (color 0 0 0 0))
    (uuid b454dfb1-816d-4e93-a606-e9fc182031a5)
  )
  (wire (pts (xy 224.79 132.08) (xy 232.41 132.08))
    (stroke (width 0) (type default) (color 0 0 0 0))
    (uuid b60bf94a-6b15-4dfc-8b73-983309951c5a)
  )
  (wire (pts (xy 181.61 27.94) (xy 181.61 34.29))
    (stroke (width 0) (type default) (color 0 0 0 0))
    (uuid bda266de-ed4a-46db-89a5-645275e9138c)
  )
  (wire (pts (xy 194.31 48.26) (xy 213.36 48.26))
    (stroke (width 0) (type default) (color 0 0 0 0))
    (uuid c44405a1-1091-4fa5-a470-dfefe5d4aa6c)
  )
  (wire (pts (xy 163.83 48.26) (xy 168.91 48.26))
    (stroke (width 0) (type default) (color 0 0 0 0))
    (uuid c9cef289-0bae-4ae7-8bf6-4d1e02e03bd8)
  )
  (wire (pts (xy 55.88 69.85) (xy 55.88 91.44))
    (stroke (width 0) (type default) (color 0 0 0 0))
    (uuid d033f217-85d4-4546-a86a-45fab994353a)
  )
  (wire (pts (xy 194.31 125.73) (xy 205.74 125.73))
    (stroke (width 0) (type default) (color 0 0 0 0))
    (uuid d123948d-6451-4840-aa25-3b78bdd0a498)
  )
  (wire (pts (xy 222.25 129.54) (xy 222.25 148.59))
    (stroke (width 0) (type default) (color 0 0 0 0))
    (uuid d60ed5e2-324d-4a7f-8bb3-52abb8c43deb)
  )
  (wire (pts (xy 194.31 73.66) (xy 213.36 73.66))
    (stroke (width 0) (type default) (color 0 0 0 0))
    (uuid d663f6b2-5e2f-431c-89ad-1e6b445e3a9b)
  )
  (wire (pts (xy 205.74 107.95) (xy 194.31 107.95))
    (stroke (width 0) (type default) (color 0 0 0 0))
    (uuid d925a4f4-8ae6-4607-9194-5588a162668b)
  )
  (wire (pts (xy 194.31 69.85) (xy 213.36 69.85))
    (stroke (width 0) (type default) (color 0 0 0 0))
    (uuid dc6d9d56-3db5-44ef-bad9-e34dfe03beb4)
  )
  (wire (pts (xy 208.28 110.49) (xy 204.47 110.49))
    (stroke (width 0) (type default) (color 0 0 0 0))
    (uuid ddb193e6-964e-439e-9931-2a3b27deff28)
  )
  (wire (pts (xy 176.53 20.32) (xy 176.53 34.29))
    (stroke (width 0) (type default) (color 0 0 0 0))
    (uuid dec5fba2-627b-46c8-a1bc-806f3b72cae5)
  )
  (wire (pts (xy 194.31 80.01) (xy 213.36 80.01))
    (stroke (width 0) (type default) (color 0 0 0 0))
    (uuid eb554bb8-b7e7-4ab4-a6cd-cd2a4faa83e8)
  )
  (wire (pts (xy 204.47 113.03) (xy 208.28 113.03))
    (stroke (width 0) (type default) (color 0 0 0 0))
    (uuid ed6bdfac-7c46-411c-ab18-a74a7254c160)
  )
  (wire (pts (xy 44.45 20.32) (xy 176.53 20.32))
    (stroke (width 0) (type default) (color 0 0 0 0))
    (uuid f4823f65-915f-4746-a6bb-9f6891aa49ac)
  )
  (wire (pts (xy 158.75 92.71) (xy 158.75 104.14))
    (stroke (width 0) (type default) (color 0 0 0 0))
    (uuid f90e1e2e-62bd-48ff-91f7-68d7548ad06e)
  )
  (wire (pts (xy 88.9 92.71) (xy 88.9 91.44))
    (stroke (width 0) (type default) (color 0 0 0 0))
    (uuid fab2fce5-7c19-42d3-89a3-38d48bf772d9)
  )

  (hierarchical_label "CT_2_L" (shape input) (at 213.36 50.8 0)
    (effects (font (size 1.27 1.27)) (justify left))
    (uuid 004ddc59-502a-41fa-b8c0-7a83f25c6f6a)
  )
  (hierarchical_label "CT_4_L" (shape input) (at 213.36 63.5 0)
    (effects (font (size 1.27 1.27)) (justify left))
    (uuid 136d8c06-e409-4a91-b2d2-e2068314791c)
  )
  (hierarchical_label "CT_6_L" (shape input) (at 213.36 76.2 0)
    (effects (font (size 1.27 1.27)) (justify left))
    (uuid 14f1ac0f-1c6f-4b72-8771-0c26dcc3c70e)
  )
  (hierarchical_label "PT100_B_2" (shape input) (at 208.28 115.57 0)
    (effects (font (size 1.27 1.27)) (justify left))
    (uuid 155d758b-fb1a-49f5-9e11-2e480d4c2abe)
  )
  (hierarchical_label "GNDA" (shape input) (at 92.71 91.44 0)
    (effects (font (size 1.27 1.27)) (justify left))
    (uuid 1e6efb14-d433-4128-9f38-6a656e5f9d87)
  )
  (hierarchical_label "CT_1_L" (shape input) (at 213.36 44.45 0)
    (effects (font (size 1.27 1.27)) (justify left))
    (uuid 2090fc97-171f-44e1-bc8d-d36f7e49827f)
  )
  (hierarchical_label "Uc" (shape input) (at 44.45 27.94 180)
    (effects (font (size 1.27 1.27)) (justify right))
    (uuid 234e56df-a7db-4d1e-a3ae-6793cc1cb3ec)
  )
  (hierarchical_label "CT_7_K" (shape input) (at 213.36 80.01 0)
    (effects (font (size 1.27 1.27)) (justify left))
    (uuid 23f3bcdc-0a89-4adc-a4c0-1d37b26255b1)
  )
  (hierarchical_label "PT100_Bb_1" (shape input) (at 205.74 107.95 0)
    (effects (font (size 1.27 1.27)) (justify left))
    (uuid 2732e9ec-b6cb-4492-854d-d1136bea7afe)
  )
  (hierarchical_label "Ua" (shape input) (at 44.45 20.32 180)
    (effects (font (size 1.27 1.27)) (justify right))
    (uuid 2ad1165b-8de3-47ed-9bee-45685669edaf)
  )
  (hierarchical_label "PT100_A_2" (shape input) (at 208.28 110.49 0)
    (effects (font (size 1.27 1.27)) (justify left))
    (uuid 48a1b5fb-2b41-4207-8e2c-49dd105647bb)
  )
  (hierarchical_label "CT_6_K" (shape input) (at 213.36 73.66 0)
    (effects (font (size 1.27 1.27)) (justify left))
    (uuid 569c1b03-7040-4866-9a23-eda8368a1be7)
  )
  (hierarchical_label "PT100_A_1" (shape input) (at 205.74 100.33 0)
    (effects (font (size 1.27 1.27)) (justify left))
    (uuid 6601a86d-91d6-4f7f-96d6-6c75c001fd56)
  )
  (hierarchical_label "CT_2_K" (shape input) (at 213.36 48.26 0)
    (effects (font (size 1.27 1.27)) (justify left))
    (uuid 86eac692-0f63-4c76-ad02-090f9108f17a)
  )
  (hierarchical_label "+24V" (shape input) (at 92.71 86.36 0)
    (effects (font (size 1.27 1.27)) (justify left))
    (uuid 88e4d299-a4f4-425d-8b83-04c030539898)
  )
  (hierarchical_label "CT_4_K" (shape input) (at 213.36 60.96 0)
    (effects (font (size 1.27 1.27)) (justify left))
    (uuid 8f14c96d-1948-477e-ac2e-9b5e632725dc)
  )
  (hierarchical_label "PT100_Bb_2" (shape input) (at 208.28 118.11 0)
    (effects (font (size 1.27 1.27)) (justify left))
    (uuid 960e81d2-584d-4a8c-9255-95e3e7febc61)
  )
  (hierarchical_label "Ub" (shape input) (at 44.45 24.13 180)
    (effects (font (size 1.27 1.27)) (justify right))
    (uuid 985c9a0d-5499-4f7c-9aa9-8c6e4f0daec8)
  )
  (hierarchical_label "PT100_Aa_2" (shape input) (at 208.28 113.03 0)
    (effects (font (size 1.27 1.27)) (justify left))
    (uuid 9f36b25e-1ccc-40ef-8e7a-b230f71fcfec)
  )
  (hierarchical_label "CT_5_L" (shape input) (at 213.36 69.85 0)
    (effects (font (size 1.27 1.27)) (justify left))
    (uuid b42ae679-72d4-44f3-9c56-10546dd3b077)
  )
  (hierarchical_label "CT_5_K" (shape input) (at 213.36 67.31 0)
    (effects (font (size 1.27 1.27)) (justify left))
    (uuid b538fe25-da97-48a1-b183-a842509efdfb)
  )
  (hierarchical_label "PT100_Aa_1" (shape input) (at 205.74 102.87 0)
    (effects (font (size 1.27 1.27)) (justify left))
    (uuid b9221206-89b5-448a-ad3a-5ced3844bce1)
  )
  (hierarchical_label "-I_Flow" (shape input) (at 205.74 125.73 0)
    (effects (font (size 1.27 1.27)) (justify left))
    (uuid ccbca630-0df9-401e-b55b-8644b84b019c)
  )
  (hierarchical_label "PT100_B_1" (shape input) (at 205.74 105.41 0)
    (effects (font (size 1.27 1.27)) (justify left))
    (uuid cccc4df3-beb8-47ee-9aa1-448631676bad)
  )
  (hierarchical_label "+I_Flow" (shape input) (at 205.74 123.19 0)
    (effects (font (size 1.27 1.27)) (justify left))
    (uuid cfa295e5-2af6-4e4d-98f0-ef0741e0abee)
  )
  (hierarchical_label "CT_3_K" (shape input) (at 213.36 54.61 0)
    (effects (font (size 1.27 1.27)) (justify left))
    (uuid d08515b0-2fd5-43a9-b75d-29ed3e91eae5)
  )
  (hierarchical_label "CT_7_L" (shape input) (at 213.36 82.55 0)
    (effects (font (size 1.27 1.27)) (justify left))
    (uuid d1760185-de97-43c9-94ab-0dca52cf8b8a)
  )
  (hierarchical_label "N" (shape input) (at 44.45 48.26 180)
    (effects (font (size 1.27 1.27)) (justify right))
    (uuid d39f2fa4-b73e-4448-a117-fe40af60cbae)
  )
  (hierarchical_label "CT_3_L" (shape input) (at 213.36 57.15 0)
    (effects (font (size 1.27 1.27)) (justify left))
    (uuid df1c016b-0bce-494c-8d53-e03198949483)
  )
  (hierarchical_label "L" (shape input) (at 44.45 43.18 180)
    (effects (font (size 1.27 1.27)) (justify right))
    (uuid e3fc20f2-921b-4938-9ae4-f71ef11da4a9)
  )
  (hierarchical_label "CT_1_K" (shape input) (at 213.36 41.91 0)
    (effects (font (size 1.27 1.27)) (justify left))
    (uuid fc9363d4-5ce2-4115-83d6-fd315ed300f2)
  )

  (symbol (lib_id "gshp_power_controller_schematic-rescue:KVH_JK23663-gshp_lib") (at 181.61 48.26 0) (unit 1)
    (in_bom yes) (on_board yes)
    (uuid 00000000-0000-0000-0000-00005fc7b5d2)
    (property "Reference" "U21" (id 0) (at 190.5 34.29 0))
    (property "Value" "KVH_JK23663" (id 1) (at 177.8 86.36 0))
    (property "Footprint" "" (id 2) (at 184.15 60.96 0)
      (effects (font (size 1.27 1.27)) hide)
    )
    (property "Datasheet" "" (id 3) (at 184.15 60.96 0)
      (effects (font (size 1.27 1.27)) hide)
    )
    (pin "1" (uuid 9a665380-64f4-495e-88c2-dac6eba35a2a))
    (pin "10" (uuid 1b4e777a-a933-4780-9fd1-a3ec85d3f5fd))
    (pin "11" (uuid 98da63df-91f2-4f0f-b7f5-1f7aecca1648))
    (pin "12" (uuid b3198b1d-1da4-458c-ba85-ed64eb09daa6))
    (pin "13" (uuid 759d74bf-6d59-4950-b320-55e4a66baede))
    (pin "14" (uuid bee38727-135a-4f2c-9838-c01a97b106d6))
    (pin "15" (uuid 92bc5cdf-6608-4d0e-b36e-e848354dee65))
    (pin "16" (uuid c6e442c3-ffc6-48d1-b608-6362980c3d40))
    (pin "17" (uuid 40a9505a-c579-414a-996e-09c798d958a4))
    (pin "18" (uuid 7cdb3b7e-7c8f-4291-9a7b-d83c84e00c81))
    (pin "19" (uuid 2139f1e3-28f0-4997-ae3c-c84b597ce5b2))
    (pin "2" (uuid 21a158fc-ec06-4eb0-bd7e-20678f42a008))
    (pin "20" (uuid f2750285-a74a-496a-adfc-58f79f92b255))
    (pin "21" (uuid 13d98aed-cc47-4b8f-850b-fe8e47930e0c))
    (pin "22" (uuid 6aa3a77a-2663-4d8c-98b4-3fd4494d5873))
    (pin "3" (uuid f460adf3-e43f-4290-b7d1-75e3306abbab))
    (pin "4" (uuid 49bc2c4e-f599-4b1d-a248-f75dd435280c))
    (pin "5" (uuid 2b28d26e-9846-4c8d-b17c-d7d861b36293))
    (pin "6" (uuid 93496aed-ff1d-454a-ae2b-fb04f543ba65))
    (pin "7" (uuid bae5dcfb-7b59-4682-b883-20e0b1fac39a))
    (pin "8" (uuid 2fdafbe6-aadc-433a-ba69-666291f3c8dd))
    (pin "9" (uuid 7928eaa2-acd5-4e2d-ae40-66168b20ca70))
  )

  (symbol (lib_id "gshp_power_controller_schematic-rescue:TIM-94N-4CH-gshp_lib") (at 175.26 107.95 0) (unit 1)
    (in_bom yes) (on_board yes)
    (uuid 00000000-0000-0000-0000-00005fc8233e)
    (property "Reference" "U20" (id 0) (at 190.5 99.06 0))
    (property "Value" "TIM-94N-4CH" (id 1) (at 177.8 143.51 0))
    (property "Footprint" "" (id 2) (at 175.26 107.95 0)
      (effects (font (size 1.27 1.27)) hide)
    )
    (property "Datasheet" "" (id 3) (at 175.26 107.95 0)
      (effects (font (size 1.27 1.27)) hide)
    )
    (pin "1" (uuid 37a5513b-0b34-4f01-9418-c094237332a7))
    (pin "11" (uuid 26a80ff5-1ab2-4020-bfac-a499d1bae481))
    (pin "12" (uuid a5389751-6686-41ba-9e5d-23e4da73ca59))
    (pin "13" (uuid 3d114354-d886-4f06-b9b4-c26f050a962c))
    (pin "14" (uuid 9b049163-ffce-4e1d-932b-82552a08ff1a))
    (pin "15" (uuid e984fc14-3b57-4578-a3f5-bcca17436c79))
    (pin "16" (uuid cc7cbba5-6b1e-4c9f-9821-fbfb6ae0896e))
    (pin "17" (uuid 70909505-7396-4c48-baa3-3b08a2b24c00))
    (pin "18" (uuid 5c84d74e-b045-414d-89db-beffd82ca2d7))
    (pin "19" (uuid 22ddafe7-1e5f-482d-a25d-0ea4307d6ab5))
    (pin "2" (uuid 94706472-091e-4aa6-bbb1-64a8ad25f577))
    (pin "20" (uuid 4e41aeb5-0958-413d-9de6-2315d1bde904))
    (pin "21" (uuid fd713459-3383-462a-9ade-9b44bace07b0))
    (pin "22" (uuid 98070d46-a53d-446d-be0e-dcc9f0071685))
    (pin "23" (uuid 9b61c144-1b70-4a44-9b09-ecf8f804f57f))
    (pin "24" (uuid 2ca02cc6-41de-40c8-ac99-de9ebb3e4a7a))
  )

  (symbol (lib_id "gshp_power_controller_schematic-rescue:5V_Regulator-gshp_lib") (at 73.66 60.96 0) (unit 1)
    (in_bom yes) (on_board yes)
    (uuid 00000000-0000-0000-0000-00005fcbc350)
    (property "Reference" "U18" (id 0) (at 74.93 58.039 0))
    (property "Value" "5V_Regulator" (id 1) (at 74.93 60.3504 0))
    (property "Footprint" "" (id 2) (at 73.66 60.96 0)
      (effects (font (size 1.27 1.27)) hide)
    )
    (property "Datasheet" "" (id 3) (at 73.66 60.96 0)
      (effects (font (size 1.27 1.27)) hide)
    )
    (pin "1" (uuid ec176532-7692-45a3-b8ab-0fe4372ea8e7))
    (pin "2" (uuid 5440123a-00cc-4045-b726-1ff388da9f00))
    (pin "3" (uuid c02cad00-0d16-4b71-be5f-87e1305a986e))
    (pin "4" (uuid 9d959e61-2751-4407-93fe-2cc3c5ab595d))
  )

  (symbol (lib_id "gshp_power_controller_schematic-rescue:24V_Regulator-gshp_lib") (at 73.66 82.55 0) (unit 1)
    (in_bom yes) (on_board yes)
    (uuid 00000000-0000-0000-0000-00005fcbccf1)
    (property "Reference" "U19" (id 0) (at 74.93 79.629 0))
    (property "Value" "24V_Regulator" (id 1) (at 74.93 81.9404 0))
    (property "Footprint" "" (id 2) (at 73.66 82.55 0)
      (effects (font (size 1.27 1.27)) hide)
    )
    (property "Datasheet" "" (id 3) (at 73.66 82.55 0)
      (effects (font (size 1.27 1.27)) hide)
    )
    (pin "1" (uuid ad5fc87b-0b54-4ffd-9d32-265f0e4e13d6))
    (pin "2" (uuid 8419df35-2cb9-4b0a-900b-284d862e7043))
    (pin "3" (uuid b31f75b2-8a8d-4c75-951a-74e56aec2b88))
    (pin "4" (uuid 6f974f27-819e-49e7-a611-beb36e12341c))
  )

  (symbol (lib_id "power:+24V") (at 88.9 85.09 0) (unit 1)
    (in_bom yes) (on_board yes)
    (uuid 00000000-0000-0000-0000-00005fcc174e)
    (property "Reference" "#PWR03" (id 0) (at 88.9 88.9 0)
      (effects (font (size 1.27 1.27)) hide)
    )
    (property "Value" "+24V" (id 1) (at 89.281 80.6958 0))
    (property "Footprint" "" (id 2) (at 88.9 85.09 0)
      (effects (font (size 1.27 1.27)) hide)
    )
    (property "Datasheet" "" (id 3) (at 88.9 85.09 0)
      (effects (font (size 1.27 1.27)) hide)
    )
    (pin "1" (uuid 47b5322a-c81f-49c6-9396-75748c4dc597))
  )

  (symbol (lib_id "power:+5V") (at 88.9 63.5 0) (unit 1)
    (in_bom yes) (on_board yes)
    (uuid 00000000-0000-0000-0000-00005fcc2a2a)
    (property "Reference" "#PWR01" (id 0) (at 88.9 67.31 0)
      (effects (font (size 1.27 1.27)) hide)
    )
    (property "Value" "+5V" (id 1) (at 89.281 59.1058 0))
    (property "Footprint" "" (id 2) (at 88.9 63.5 0)
      (effects (font (size 1.27 1.27)) hide)
    )
    (property "Datasheet" "" (id 3) (at 88.9 63.5 0)
      (effects (font (size 1.27 1.27)) hide)
    )
    (pin "1" (uuid b6af9d8d-841a-44aa-aaae-77b00f8cd536))
  )

  (symbol (lib_id "power:GNDD") (at 88.9 71.12 0) (unit 1)
    (in_bom yes) (on_board yes)
    (uuid 00000000-0000-0000-0000-00005fcc53a3)
    (property "Reference" "#PWR02" (id 0) (at 88.9 77.47 0)
      (effects (font (size 1.27 1.27)) hide)
    )
    (property "Value" "GNDD" (id 1) (at 89.0016 75.057 0))
    (property "Footprint" "" (id 2) (at 88.9 71.12 0)
      (effects (font (size 1.27 1.27)) hide)
    )
    (property "Datasheet" "" (id 3) (at 88.9 71.12 0)
      (effects (font (size 1.27 1.27)) hide)
    )
    (pin "1" (uuid 16a4b3b5-1be6-4a7e-8c29-d2d7ff184054))
  )

  (symbol (lib_id "power:GNDA") (at 88.9 92.71 0) (unit 1)
    (in_bom yes) (on_board yes)
    (uuid 00000000-0000-0000-0000-00005fcc55c8)
    (property "Reference" "#PWR04" (id 0) (at 88.9 99.06 0)
      (effects (font (size 1.27 1.27)) hide)
    )
    (property "Value" "GNDA" (id 1) (at 89.027 97.1042 0))
    (property "Footprint" "" (id 2) (at 88.9 92.71 0)
      (effects (font (size 1.27 1.27)) hide)
    )
    (property "Datasheet" "" (id 3) (at 88.9 92.71 0)
      (effects (font (size 1.27 1.27)) hide)
    )
    (pin "1" (uuid 1393c031-e423-41a0-8131-9fded5d8190a))
  )

  (symbol (lib_id "gshp_power_controller_schematic-rescue:TIM-94N-4CH-gshp_lib") (at 238.76 107.95 0) (unit 1)
    (in_bom yes) (on_board yes)
    (uuid 00000000-0000-0000-0000-000062473c6c)
    (property "Reference" "U?" (id 0) (at 254 99.06 0))
    (property "Value" "TIM-94N-4CH" (id 1) (at 241.3 143.51 0))
    (property "Footprint" "" (id 2) (at 238.76 107.95 0)
      (effects (font (size 1.27 1.27)) hide)
    )
    (property "Datasheet" "" (id 3) (at 238.76 107.95 0)
      (effects (font (size 1.27 1.27)) hide)
    )
    (pin "1" (uuid f0dd2cbc-154a-4fbf-908d-c006afed9836))
    (pin "11" (uuid dcbd90e7-b15e-488c-a1cd-426bc4f91331))
    (pin "12" (uuid 4dc62728-b13e-4a07-9e29-ff691116480b))
    (pin "13" (uuid ae39a496-b18e-4c20-a54d-e6aeca0cc469))
    (pin "14" (uuid c540ba7f-2cc9-4259-98f2-105a389f7c3c))
    (pin "15" (uuid 7e3bebec-6658-43b0-a30b-6d8025d54f1a))
    (pin "16" (uuid b5fa0c6f-efa9-407b-8043-a69a40a56864))
    (pin "17" (uuid 1a205ef0-f964-4c0a-ba33-d746ed831b4e))
    (pin "18" (uuid 0babafeb-f6f1-4f1d-bd7e-4d43d404d451))
    (pin "19" (uuid dc1cf1e9-27b6-42fc-a7c0-762e642b87ec))
    (pin "2" (uuid 803f8d79-f411-4684-b938-6454b931e02a))
    (pin "20" (uuid 86bfaac9-f883-4706-8426-1fdaf54fff72))
    (pin "21" (uuid 28706014-c5c6-490b-8a41-65527694a254))
    (pin "22" (uuid af1259e8-ada1-4815-adab-ed84aa7e1f5a))
    (pin "23" (uuid 389c106f-4ff1-43be-a09c-3e724bf33b01))
    (pin "24" (uuid b33033d8-1a53-420b-9285-6ae6cbc5eeec))
  )
)
